benchmark,Phase number,BS,retention_times,Clk_speed,system.mem_ctrls.readRowHits,system.mem_ctrls_0.memoryStateTime::IDLE,system.cpu.dcache.ReadReq_misses::total,labels
astar,0,1,75us,2,504,2775421750,550,2
bwaves,0,1,75us,2,96313,1687373500,3335,2
bzip2,0,1,75us,2,11854,880505250,2687,2
gamess,0,1,75us,2,1775,1657075750,1185,2
gemsfdtd,0,1,75us,2,4040,646184750,2188,2
gobmk,0,1,75us,2,35740,1414877250,159,2
gromacs,0,1,75us,2,5963,2369287000,1864,2
h264ref,0,1,75us,2,13822,1445828750,1750,2
hmmer,0,1,75us,2,5018,1104557750,5727,3
lbm,0,1,75us,2,92534,3402711000,83,2
leslie3d,0,1,75us,2,80891,3069452250,194,2
libquantum,0,1,75us,2,29098,1154456000,137,2
mcf,0,1,75us,2,3906,457517000,1164,2
milc,0,1,75us,2,13362,145015750,427,2
namd,0,1,75us,2,825,1061740750,1251,2
sjeng,0,1,75us,2,113021,4127852250,337,2
soplex,0,1,75us,2,10385,812078750,3737,2
zeusmp,0,1,75us,2,13096,298369500,386,2
dijkstra,0,2,75us,2,505,1153561000,983,3
gsm,0,2,75us,2,5216,1588268750,1080,2
lame,0,2,75us,2,3019,638788000,1449,2
m_cjpeg,0,2,75us,2,4583,1499302750,3615,2
m_djpeg,0,2,75us,2,3757,1250445750,2885,2
patricia,0,2,75us,2,42118,459776250,5781,3
bc_20,0,3,75us,2,1210,1321707250,1397,2
bfs_20,0,3,75us,2,1099,1319711000,1381,2
cc_20,0,3,75us,2,1284,1485390500,1423,2
pr_20,0,3,75us,2,1258,1440790500,1458,2
sssp_20,0,3,75us,2,1177,1122776000,1444,2
tc_20,0,3,75us,2,1111,1429309500,1426,2
