benchmark,Phase number,BS,retention_times,Clk_speed,system.cpu.dcache.overall_hits::total,system.cpu.dcache.ReadReq_accesses::total,system.mem_ctrls.busUtilWrite,system.mem_ctrls_0.memoryStateTime::IDLE,system.cpu.dcache.ReadReq_misses::total,labels
astar,0,1,26us,1.21,1100850,580300,0,4193890388,2082,0
bwaves,0,1,26us,1.21,2099342,513406,3.55,1858919794,5464,1
bzip2,0,1,26us,1.21,1614848,1054802,0.99,834697902,5357,2
gamess,0,1,26us,1.21,1267821,837418,0.06,1820388694,3799,2
gemsfdtd,0,1,26us,1.21,1068878,530696,0.05,1289799814,6944,2
gobmk,0,1,26us,1.21,1166430,581589,2.85,1943235494,337,1
gromacs,0,1,26us,1.21,1384839,684323,0.49,2295051612,3511,2
h264ref,0,1,26us,1.21,848770,388592,1.37,1894802074,4360,2
hmmer,0,1,26us,1.21,953993,595332,0.07,1693091102,14822,3
lbm,0,1,26us,1.21,702713,3961,4.54,4303926204,105,0
leslie3d,0,1,26us,1.21,1362725,36961,4.32,3501181192,429,1
libquantum,0,1,26us,1.21,968741,500053,2.61,1666980614,308,0
mcf,0,1,26us,1.21,1073859,620840,0.48,621990430,3702,2
milc,0,1,26us,1.21,753452,336561,1.58,320196182,1467,0
namd,0,1,26us,1.21,764425,474522,0.04,772663640,4260,2
sjeng,0,1,26us,1.21,2136038,228049,4.55,4546867336,1098,2
soplex,0,1,26us,1.21,848814,455249,1.34,1416971134,5953,2
zeusmp,0,1,26us,1.21,1732080,424250,3.42,397584134,878,2
dijkstra,0,2,26us,1.21,1145725,690698,0,934007704,3269,2
gsm,0,2,26us,1.21,1277330,920145,0.1,2554754716,2510,0
lame,0,2,26us,1.21,419719,179151,0.25,734392222,2734,2
m_cjpeg,0,2,26us,1.21,1162109,841592,0.61,2416454342,6980,2
m_djpeg,0,2,26us,1.21,1558842,1090925,0.75,2034266180,7223,2
patricia,0,2,26us,1.21,1043856,608798,0.02,733174500,17351,3
bc_20,0,3,26us,1.21,655094,323925,0.13,1671895540,2708,0
bfs_20,0,3,26us,1.21,653871,323204,0.13,1693752948,2719,0
cc_20,0,3,26us,1.21,684886,354333,0.15,2169073322,2851,0
pr_20,0,3,26us,1.21,656218,324614,0.15,2212249674,2801,0
sssp_20,0,3,26us,1.21,655648,323511,0.13,1664384252,2780,0
tc_20,0,3,26us,1.21,653745,323190,0.16,2052329026,2831,0
