benchmark,Phase number,BS,retention_times,Clk_speed,system.cpu.dcache.overall_hits::total,system.cpu.dcache.ReadReq_accesses::total,system.mem_ctrls.busUtilWrite,system.mem_ctrls_0.memoryStateTime::IDLE,system.cpu.dcache.ReadReq_misses::total,labels
astar,0,1,400us,2,1102761,580300,0,3037487500,178,0
bwaves,0,1,400us,2,2102342,513406,3.66,1807567250,2484,1
bzip2,0,1,400us,2,1619951,1054802,1.19,941335000,1334,2
gamess,0,1,400us,2,1271875,837418,0.03,2301384250,427,2
gemsfdtd,0,1,400us,2,1078004,530696,0.01,1046496000,886,2
gobmk,0,1,400us,2,1166809,581589,3.45,1535144750,103,1
gromacs,0,1,400us,2,1387043,684323,0.63,3027601250,1442,2
h264ref,0,1,400us,2,852569,388592,1.77,1606296500,828,2
hmmer,0,1,400us,2,967663,595332,0.07,1234548750,1747,3
lbm,0,1,400us,2,702739,3961,5.17,3441866250,83,0
leslie3d,0,1,400us,2,1363080,36961,4.56,3490322250,130,1
libquantum,0,1,400us,2,968959,500053,3.22,1283085000,89,0
mcf,0,1,400us,2,1077029,620840,0.68,593876000,532,2
milc,0,1,400us,2,754758,336561,2.1,157890000,163,0
namd,0,1,400us,2,768281,474522,0.05,1823395500,489,2
sjeng,0,1,400us,2,2136996,228049,4.7,4462265500,147,2
soplex,0,1,400us,2,853893,455249,1.49,987364000,1775,2
zeusmp,0,1,400us,2,1732944,424250,3.74,346470000,243,2
dijkstra,0,2,400us,2,1148557,690698,0,1626111500,437,2
gsm,0,2,400us,2,1280589,920145,0,1798366750,395,0
lame,0,2,400us,2,421756,179151,0.34,1200701500,788,2
m_cjpeg,0,2,400us,2,1169499,841592,0.39,1553125500,1647,2
m_djpeg,0,2,400us,2,1569515,1090925,0.3,1808787000,1274,2
patricia,0,2,400us,2,1059937,608798,0.02,588172750,1404,3
bc_20,0,3,400us,2,657540,323925,0.01,1758883000,330,0
bfs_20,0,3,400us,2,656305,323204,0.01,1733310000,337,0
cc_20,0,3,400us,2,687468,354333,0.01,1775001000,330,0
pr_20,0,3,400us,2,658718,324614,0.01,1738002250,365,0
sssp_20,0,3,400us,2,658144,323511,0.01,1571850250,349,0
tc_20,0,3,400us,2,656286,323190,0.01,1744250750,342,0
