benchmark,Phase number,BS,retention_times,Clk_speed,system.cpu.dcache.overall_hits::total,system.mem_ctrls.readRowHits,system.mem_ctrls.writeRowHitRate,system.cpu.dcache.ReadReq_misses::total,IC_L1 Latency,IC_L1 energy,10us core configuration,26us core configuration,75us core configuration,400us core configuration
astar,0,1,400us,2,1102761,500,0,178,0.003544657,5.72E-05,1,3,2,4
bwaves,0,1,400us,2,2102342,94611,87.88,2484,0.004358965,7.03E-05,2,1,3,4
bzip2,0,1,400us,2,1619951,11042,92.93,1334,0.003296321,5.32E-05,3,1,2,4
gamess,0,1,400us,2,1271875,1387,61.47,427,0.003340576,5.38E-05,4,1,2,3
gemsfdtd,0,1,400us,2,1078004,2994,62.26,886,0.003731298,5.96E-05,3,1,2,4
gobmk,0,1,400us,2,1166809,35678,91.18,103,0.003601978,5.81E-05,2,1,3,4
gromacs,0,1,400us,2,1387043,5830,89.86,1442,0.00343415,5.53E-05,4,2,1,3
h264ref,0,1,400us,2,852569,13457,89.95,828,0.003500517,5.64E-05,4,2,1,3
hmmer,0,1,400us,2,967663,2045,78.93,1747,0.003638118,5.86E-05,3,4,2,1
lbm,0,1,400us,2,702739,92497,92.89,83,0.004692032,7.57E-05,1,2,3,4
leslie3d,0,1,400us,2,1363080,80538,92.89,130,0.003070426,4.95E-05,2,1,3,4
libquantum,0,1,400us,2,968959,28990,90.95,89,0.003517108,5.67E-05,1,2,3,4
mcf,0,1,400us,2,1077029,3726,83.54,532,0.003602194,5.81E-05,2,1,3,4
milc,0,1,400us,2,754758,13230,42.86,163,0.003603631,5.81E-05,1,2,3,4
namd,0,1,400us,2,768281,586,51.69,489,0.003625453,5.85E-05,4,2,1,3
sjeng,0,1,400us,2,2136996,113137,92.76,147,0.003188596,5.14E-05,4,2,1,3
soplex,0,1,400us,2,853893,10123,89.51,1775,0.003438361,5.53E-05,4,3,1,2
zeusmp,0,1,400us,2,1732944,12856,71.52,243,0.004159543,6.70E-05,3,1,2,4
dijkstra,0,2,400us,2,1148557,385,38.89,437,0.003068058,4.95E-05,4,3,1,2
gsm,0,2,400us,2,1280589,4929,0,395,0.003305865,5.27E-05,1,3,2,4
lame,0,2,400us,2,421756,2785,85.71,788,0.00306814,4.94E-05,3,4,1,2
m_cjpeg,0,2,400us,2,1169499,3420,82.41,1647,0.003039164,4.90E-05,3,2,1,4
m_djpeg,0,2,400us,2,1569515,2502,85.63,1274,0.003049517,4.91E-05,4,3,1,2
patricia,0,2,400us,2,1059937,40041,72.56,1404,0.006006507,9.03E-05,4,2,3,1
bc_20,0,3,400us,2,657540,1191,52.63,330,0.003063502,4.93E-05,1,3,2,4
bfs_20,0,3,400us,2,656305,1075,55.77,337,0.003057812,4.92E-05,1,3,2,4
cc_20,0,3,400us,2,687468,1249,50,330,0.003067515,4.94E-05,1,3,2,4
pr_20,0,3,400us,2,658718,1223,62.32,365,0.003070171,4.94E-05,1,3,2,4
sssp_20,0,3,400us,2,658144,1148,44.12,349,0.003068395,4.94E-05,1,3,2,4
tc_20,0,3,400us,2,656286,1085,45.9,342,0.003060679,4.93E-05,1,3,2,4
