benchmark,Phase number,BS,retention_times,Clk_speed,system.cpu.dcache.overall_hits::total,system.mem_ctrls.readRowHits,system.mem_ctrls.writeRowHitRate,system.cpu.dcache.ReadReq_misses::total,IC_L1 Latency,IC_L1 energy,10us core configuration,26us core configuration,75us core configuration,400us core configuration
astar,0,1,10us,1.6,1098718,1413,38.1,4205,0.002226862,3.98E-05,1,3,2,4
bwaves,0,1,10us,1.6,2095333,94434,87.48,9445,0.00273692,4.90E-05,2,1,3,4
bzip2,0,1,10us,1.6,1611607,16753,91.79,8448,0.002068044,3.70E-05,3,1,2,4
gamess,0,1,10us,1.6,1263156,4209,80.74,7467,0.002111811,3.76E-05,4,1,2,3
gemsfdtd,0,1,10us,1.6,1060583,10659,91.38,11960,0.002445127,4.26E-05,3,1,2,4
gobmk,0,1,10us,1.6,1166121,35609,91.07,639,0.002256653,4.04E-05,2,1,3,4
gromacs,0,1,10us,1.6,1382526,6819,89.52,5709,0.002165964,3.87E-05,4,2,1,3
h264ref,0,1,10us,1.6,844507,17096,89.95,8490,0.002204397,3.94E-05,4,2,1,3
hmmer,0,1,10us,1.6,946845,14801,81.39,21731,0.002292146,4.09E-05,3,4,2,1
lbm,0,1,10us,1.6,702673,92672,92.89,137,0.002939731,5.27E-05,1,2,3,4
leslie3d,0,1,10us,1.6,1362283,81091,92.84,773,0.001936543,3.46E-05,2,1,3,4
libquantum,0,1,10us,1.6,968443,28969,91,598,0.002204543,3.95E-05,1,2,3,4
mcf,0,1,10us,1.6,1069487,6530,85.11,8063,0.00225955,4.05E-05,2,1,3,4
milc,0,1,10us,1.6,751892,14863,43.02,3016,0.002261573,4.05E-05,1,2,3,4
namd,0,1,10us,1.6,758939,4141,69.59,9255,0.002278122,4.07E-05,4,2,1,3
sjeng,0,1,10us,1.6,2135007,114266,92.68,2120,0.001999047,3.58E-05,4,2,1,3
soplex,0,1,10us,1.6,844965,12190,89.33,8774,0.002179077,3.88E-05,4,3,1,2
zeusmp,0,1,10us,1.6,1731105,13136,72.19,1671,0.002626903,4.68E-05,3,1,2,4
dijkstra,0,2,10us,1.6,1142333,2308,41.46,6660,0.001924554,3.45E-05,4,3,1,2
gsm,0,2,10us,1.6,1276448,5671,84.09,3253,0.002185772,3.79E-05,1,3,2,4
lame,0,2,10us,1.6,418289,3936,85.89,4126,0.001943887,3.46E-05,3,4,1,2
m_cjpeg,0,2,10us,1.6,1158151,7987,89.64,10472,0.001913646,3.42E-05,3,2,1,4
m_djpeg,0,2,10us,1.6,1554543,9797,89.45,11728,0.001926607,3.44E-05,4,3,1,2
patricia,0,2,10us,1.6,1019468,59744,84.6,34605,0.004910686,7.50E-05,4,2,3,1
bc_20,0,3,10us,1.6,653932,2151,90.25,3813,0.00193885,3.45E-05,1,3,2,4
bfs_20,0,3,10us,1.6,652801,1979,87.49,3725,0.00193226,3.44E-05,1,3,2,4
cc_20,0,3,10us,1.6,683674,2486,87.46,3998,0.001943808,3.46E-05,1,3,2,4
pr_20,0,3,10us,1.6,655064,2300,87.25,3871,0.001945593,3.46E-05,1,3,2,4
sssp_20,0,3,10us,1.6,654458,2310,88.24,3902,0.001943484,3.46E-05,1,3,2,4
tc_20,0,3,10us,1.6,652583,2184,87.19,3936,0.001935147,3.45E-05,1,3,2,4
